<svg width="24" height="24" viewBox="0 0 24 24" fill="none" xmlns="http://www.w3.org/2000/svg">
<g clip-path="url(#clip0_0_1698)">
<path opacity="0.01" fill-rule="evenodd" clip-rule="evenodd" d="M0 0H24V24H0V0Z" fill="#FF0000" fill-opacity="0.1"/>
<path fill-rule="evenodd" clip-rule="evenodd" d="M3.9 7.50001H20.1C20.64 7.50001 21 7.14001 21 6.60001C21 6.06001 20.64 5.70001 20.1 5.70001H3.9C3.36 5.70001 3 6.06001 3 6.60001C3 7.14001 3.36 7.50001 3.9 7.50001ZM21 12C21 12.54 20.64 12.9 20.1 12.9H3.9C3.36 12.9 3 12.54 3 12C3 11.46 3.36 11.1 3.9 11.1H20.1C20.64 11.1 21 11.46 21 12ZM3.9 16.5H20.1C20.64 16.5 21 16.86 21 17.4C21 17.94 20.64 18.3 20.1 18.3H3.9C3.36 18.3 3 17.94 3 17.4C3 16.86 3.36 16.5 3.9 16.5Z" fill="black"/>
<mask id="mask0_0_1698" style="mask-type:luminance" maskUnits="userSpaceOnUse" x="3" y="5" width="18" height="14">
<path fill-rule="evenodd" clip-rule="evenodd" d="M3.9 7.50001H20.1C20.64 7.50001 21 7.14001 21 6.60001C21 6.06001 20.64 5.70001 20.1 5.70001H3.9C3.36 5.70001 3 6.06001 3 6.60001C3 7.14001 3.36 7.50001 3.9 7.50001ZM21 12C21 12.54 20.64 12.9 20.1 12.9H3.9C3.36 12.9 3 12.54 3 12C3 11.46 3.36 11.1 3.9 11.1H20.1C20.64 11.1 21 11.46 21 12ZM3.9 16.5H20.1C20.64 16.5 21 16.86 21 17.4C21 17.94 20.64 18.3 20.1 18.3H3.9C3.36 18.3 3 17.94 3 17.4C3 16.86 3.36 16.5 3.9 16.5Z" fill="white"/>
</mask>
<g mask="url(#mask0_0_1698)">
<rect width="24" height="24" fill="#74728F"/>
</g>
</g>
<defs>
<clipPath id="clip0_0_1698">
<rect width="24" height="24" fill="white"/>
</clipPath>
</defs>
</svg>
